(export (version D)
  (design
    (source C:\Users\william.gregoire\projets\electro\retro_pcbs\sms_basic_32K\cart.sch)
    (date "11/06/2018 10:56:41")
    (tool "Eeschema 4.0.7")
    (sheet (number 1) (name /) (tstamps /)
      (title_block
        (title "Sega Master System Cartridge - 32K - no mapper")
        (company SpritesMind)
        (rev 1.0)
        (date 2018-06-07)
        (source cart.sch)
        (comment (number 1) (value "Thanks to ichigo, Agent24, asynchronous, CharlesMD, JJM"))
        (comment (number 2) (value ""))
        (comment (number 3) (value ""))
        (comment (number 4) (value "")))))
  (components
    (comp (ref CONN1)
      (value CONN_SMS)
      (footprint sms_connector_25x2:SMS_CART)
      (libsource (lib sms_connector_25x2) (part CONN_SMS))
      (sheetpath (names /) (tstamps /))
      (tstamp 57195A54))
    (comp (ref C1)
      (value 100nF)
      (footprint Capacitors_THT:C_Rect_L4.0mm_W2.5mm_P2.50mm)
      (libsource (lib device) (part C))
      (sheetpath (names /) (tstamps /))
      (tstamp 574C0DC2))
    (comp (ref C2)
      (value 4.7uF)
      (footprint Capacitors_THT:CP_Radial_D5.0mm_P2.50mm)
      (libsource (lib device) (part CP1))
      (sheetpath (names /) (tstamps /))
      (tstamp 574C1047))
    (comp (ref U1)
      (value "27C256 / 29F256")
      (footprint Housings_DIP:DIP-28_W15.24mm)
      (libsource (lib memory) (part 27C256))
      (sheetpath (names /) (tstamps /))
      (tstamp 578B5E77)))
  (libparts
    (libpart (lib memory) (part 27C256)
      (aliases
        (alias 27256))
      (description "REPROM 32 KO")
      (fields
        (field (name Reference) U)
        (field (name Value) 27C256))
      (pins
        (pin (num 1) (name VPP) (type input))
        (pin (num 2) (name A12) (type input))
        (pin (num 3) (name A7) (type input))
        (pin (num 4) (name A6) (type input))
        (pin (num 5) (name A5) (type input))
        (pin (num 6) (name A4) (type input))
        (pin (num 7) (name A3) (type input))
        (pin (num 8) (name A2) (type input))
        (pin (num 9) (name A1) (type input))
        (pin (num 10) (name A0) (type input))
        (pin (num 11) (name D0) (type 3state))
        (pin (num 12) (name D1) (type 3state))
        (pin (num 13) (name D2) (type 3state))
        (pin (num 14) (name GND) (type power_in))
        (pin (num 15) (name D3) (type 3state))
        (pin (num 16) (name D4) (type 3state))
        (pin (num 17) (name D5) (type 3state))
        (pin (num 18) (name D6) (type 3state))
        (pin (num 19) (name D7) (type 3state))
        (pin (num 20) (name CE) (type input))
        (pin (num 21) (name A10) (type input))
        (pin (num 22) (name OE) (type input))
        (pin (num 23) (name A11) (type input))
        (pin (num 24) (name A9) (type input))
        (pin (num 25) (name A8) (type input))
        (pin (num 26) (name A13) (type input))
        (pin (num 27) (name A14) (type input))
        (pin (num 28) (name VCC) (type power_in))))
    (libpart (lib device) (part C)
      (description "Unpolarized capacitor")
      (footprints
        (fp C_*))
      (fields
        (field (name Reference) C)
        (field (name Value) C))
      (pins
        (pin (num 1) (name ~) (type passive))
        (pin (num 2) (name ~) (type passive))))
    (libpart (lib sms_connector_25x2) (part CONN_SMS)
      (description "Cartdrige connector of the Sega Master System")
      (footprints
        (fp Pin_Header_Straight_2X25)
        (fp Pin_Header_Angled_2X25)
        (fp Socket_Strip_Straight_2X25)
        (fp Socket_Strip_Angled_2X25))
      (fields
        (field (name Reference) P)
        (field (name Value) CONN_SMS))
      (pins
        (pin (num 1) (name VCC) (type power_in))
        (pin (num 2) (name ~WR) (type passive))
        (pin (num 3) (name ~MREQ) (type passive))
        (pin (num 4) (name ~RD) (type passive))
        (pin (num 5) (name ~M8-B) (type passive))
        (pin (num 6) (name A14) (type passive))
        (pin (num 7) (name A13) (type passive))
        (pin (num 8) (name A8) (type passive))
        (pin (num 9) (name A9) (type passive))
        (pin (num 10) (name A11) (type passive))
        (pin (num 11) (name ~M0-7) (type passive))
        (pin (num 12) (name A10) (type passive))
        (pin (num 13) (name ~CE) (type passive))
        (pin (num 14) (name D7) (type passive))
        (pin (num 15) (name D6) (type passive))
        (pin (num 16) (name D5) (type passive))
        (pin (num 17) (name D4) (type passive))
        (pin (num 18) (name D3) (type passive))
        (pin (num 19) (name GND) (type power_in))
        (pin (num 20) (name GND) (type power_in))
        (pin (num 21) (name GND) (type power_in))
        (pin (num 22) (name D2) (type passive))
        (pin (num 23) (name D1) (type passive))
        (pin (num 24) (name D0) (type passive))
        (pin (num 25) (name A0) (type passive))
        (pin (num 26) (name A1) (type passive))
        (pin (num 27) (name A2) (type passive))
        (pin (num 28) (name A3) (type passive))
        (pin (num 29) (name A4) (type passive))
        (pin (num 30) (name A5) (type passive))
        (pin (num 31) (name A6) (type passive))
        (pin (num 32) (name A7) (type passive))
        (pin (num 33) (name A12) (type passive))
        (pin (num 34) (name ~CONT) (type passive))
        (pin (num 35) (name VCC) (type power_in))
        (pin (num 36) (name A15) (type passive))
        (pin (num 37) (name ~M1) (type passive))
        (pin (num 38) (name ~IOREQ) (type passive))
        (pin (num 39) (name ~RFSH) (type passive))
        (pin (num 40) (name ~HALT) (type passive))
        (pin (num 41) (name ~WAIT) (type passive))
        (pin (num 42) (name ~INT) (type passive))
        (pin (num 43) (name JYDS) (type passive))
        (pin (num 44) (name ~BREQ) (type passive))
        (pin (num 45) (name ~BACK) (type passive))
        (pin (num 46) (name ~RST) (type passive))
        (pin (num 47) (name ~CLK) (type passive))
        (pin (num 48) (name JREAD) (type passive))
        (pin (num 49) (name ~MC-F) (type passive))
        (pin (num 50) (name ~NMI) (type passive))))
    (libpart (lib device) (part CP1)
      (description "Polarised capacitor")
      (footprints
        (fp CP_*))
      (fields
        (field (name Reference) C)
        (field (name Value) CP1))
      (pins
        (pin (num 1) (name ~) (type passive))
        (pin (num 2) (name ~) (type passive)))))
  (libraries
    (library (logical device)
      (uri "C:\\Program Files (x86)\\KiCad\\share\\kicad\\library\\device.lib"))
    (library (logical sms_connector_25x2)
      (uri C:\Users\william.gregoire\projets\electro\retro_pcbs\components\sms_connector_25x2.lib))
    (library (logical memory)
      (uri "C:\\Program Files (x86)\\KiCad\\share\\kicad\\library\\memory.lib")))
  (nets
    (net (code 1) (name /d6)
      (node (ref U1) (pin 18))
      (node (ref CONN1) (pin 15)))
    (net (code 2) (name /a10)
      (node (ref CONN1) (pin 12))
      (node (ref U1) (pin 21)))
    (net (code 3) (name /a11)
      (node (ref U1) (pin 23))
      (node (ref CONN1) (pin 10)))
    (net (code 4) (name /a8)
      (node (ref U1) (pin 25))
      (node (ref CONN1) (pin 8)))
    (net (code 5) (name /a14)
      (node (ref CONN1) (pin 6))
      (node (ref U1) (pin 27)))
    (net (code 6) (name CE)
      (node (ref CONN1) (pin 13))
      (node (ref U1) (pin 20)))
    (net (code 7) (name /d0)
      (node (ref U1) (pin 11))
      (node (ref CONN1) (pin 24)))
    (net (code 8) (name /d1)
      (node (ref U1) (pin 12))
      (node (ref CONN1) (pin 23)))
    (net (code 9) (name /d2)
      (node (ref CONN1) (pin 22))
      (node (ref U1) (pin 13)))
    (net (code 10) (name /d3)
      (node (ref U1) (pin 15))
      (node (ref CONN1) (pin 18)))
    (net (code 11) (name /d4)
      (node (ref U1) (pin 16))
      (node (ref CONN1) (pin 17)))
    (net (code 12) (name /d5)
      (node (ref CONN1) (pin 16))
      (node (ref U1) (pin 17)))
    (net (code 13) (name /d7)
      (node (ref U1) (pin 19))
      (node (ref CONN1) (pin 14)))
    (net (code 14) (name OE)
      (node (ref CONN1) (pin 11))
      (node (ref U1) (pin 22)))
    (net (code 15) (name VCC)
      (node (ref C1) (pin 1))
      (node (ref U1) (pin 28))
      (node (ref CONN1) (pin 1))
      (node (ref U1) (pin 1))
      (node (ref CONN1) (pin 35))
      (node (ref C2) (pin 1)))
    (net (code 16) (name "Net-(CONN1-Pad2)")
      (node (ref CONN1) (pin 2)))
    (net (code 17) (name "Net-(CONN1-Pad36)")
      (node (ref CONN1) (pin 36)))
    (net (code 18) (name /a7)
      (node (ref CONN1) (pin 32))
      (node (ref U1) (pin 3)))
    (net (code 19) (name GND)
      (node (ref CONN1) (pin 20))
      (node (ref CONN1) (pin 21))
      (node (ref CONN1) (pin 19))
      (node (ref C2) (pin 2))
      (node (ref C1) (pin 2))
      (node (ref U1) (pin 14)))
    (net (code 20) (name "Net-(CONN1-Pad37)")
      (node (ref CONN1) (pin 37)))
    (net (code 21) (name "Net-(CONN1-Pad43)")
      (node (ref CONN1) (pin 43)))
    (net (code 22) (name "Net-(CONN1-Pad34)")
      (node (ref CONN1) (pin 34)))
    (net (code 23) (name "Net-(CONN1-Pad44)")
      (node (ref CONN1) (pin 44)))
    (net (code 24) (name "Net-(CONN1-Pad45)")
      (node (ref CONN1) (pin 45)))
    (net (code 25) (name "Net-(CONN1-Pad46)")
      (node (ref CONN1) (pin 46)))
    (net (code 26) (name "Net-(CONN1-Pad47)")
      (node (ref CONN1) (pin 47)))
    (net (code 27) (name "Net-(CONN1-Pad38)")
      (node (ref CONN1) (pin 38)))
    (net (code 28) (name "Net-(CONN1-Pad48)")
      (node (ref CONN1) (pin 48)))
    (net (code 29) (name "Net-(CONN1-Pad39)")
      (node (ref CONN1) (pin 39)))
    (net (code 30) (name "Net-(CONN1-Pad49)")
      (node (ref CONN1) (pin 49)))
    (net (code 31) (name "Net-(CONN1-Pad50)")
      (node (ref CONN1) (pin 50)))
    (net (code 32) (name "Net-(CONN1-Pad41)")
      (node (ref CONN1) (pin 41)))
    (net (code 33) (name "Net-(CONN1-Pad3)")
      (node (ref CONN1) (pin 3)))
    (net (code 34) (name "Net-(CONN1-Pad4)")
      (node (ref CONN1) (pin 4)))
    (net (code 35) (name "Net-(CONN1-Pad5)")
      (node (ref CONN1) (pin 5)))
    (net (code 36) (name "Net-(CONN1-Pad40)")
      (node (ref CONN1) (pin 40)))
    (net (code 37) (name "Net-(CONN1-Pad42)")
      (node (ref CONN1) (pin 42)))
    (net (code 38) (name /a0)
      (node (ref CONN1) (pin 25))
      (node (ref U1) (pin 10)))
    (net (code 39) (name /a1)
      (node (ref U1) (pin 9))
      (node (ref CONN1) (pin 26)))
    (net (code 40) (name /a2)
      (node (ref CONN1) (pin 27))
      (node (ref U1) (pin 8)))
    (net (code 41) (name /a3)
      (node (ref CONN1) (pin 28))
      (node (ref U1) (pin 7)))
    (net (code 42) (name /a4)
      (node (ref U1) (pin 6))
      (node (ref CONN1) (pin 29)))
    (net (code 43) (name /a5)
      (node (ref U1) (pin 5))
      (node (ref CONN1) (pin 30)))
    (net (code 44) (name /a6)
      (node (ref CONN1) (pin 31))
      (node (ref U1) (pin 4)))
    (net (code 45) (name /a9)
      (node (ref CONN1) (pin 9))
      (node (ref U1) (pin 24)))
    (net (code 46) (name /a12)
      (node (ref CONN1) (pin 33))
      (node (ref U1) (pin 2)))
    (net (code 47) (name /a13)
      (node (ref CONN1) (pin 7))
      (node (ref U1) (pin 26)))))